{
    "wallet": {
        "keystore": "keystore.json",
        "password": "password"
    },
    "logfile": "log.txt",
    "debugseed": "159.89.252.210",
    "listen_port": ":8081",
    "trademin": 40,
    "trademax": 10000,
    "mindeltaperc": 3,
    "reserve": 10,
    "baseasset": "BUSD-BD1",
    "tradedasset": "AVA-645",
    "crossasset": "BNB"
}